<?xml version="1.0" encoding="utf-8"?>
<!-- Generator: Adobe Illustrator 23.0.1, SVG Export Plug-In . SVG Version: 6.00 Build 0)  -->
<svg version="1.1" id="Layer_1" xmlns="http://www.w3.org/2000/svg" xmlns:xlink="http://www.w3.org/1999/xlink" x="0px" y="0px"
	 viewBox="0 0 2189.9 2494.3" style="enable-background:new 0 0 2189.9 2494.3;" xml:space="preserve">
<style type="text/css">
	.st0{fill:#DB1616;}
	.st1{font-family:'TimesNewRomanPS-BoldMT';}
	.st2{font-size:618.1396px;}
</style>
<path class="st0" d="M1701,1639.1c1.8,0,29.1,26.7,60.2,59.3c31.4,32.9,71.1,74,88.1,91.7c17,17.6,35.5,37,41.1,42.9
	s37.3,38.8,70.5,73.1s68.2,71.1,77.8,81.4c9.7,10.3,19.4,18.8,21.7,18.8c4.1,0,3.8-12.6-1.5-52c-1.2-10.9-0.6-19.1,2.9-29.4
	c10.9-31.4,8.8-65.5-5.6-95.8c-9.1-19.7-10.3-48.5-2.1-64c6.5-12.9,6.5-52-0.6-68.4c-7.6-18.5-6.2-32.3,5.9-50.5
	c5.9-8.8,11.8-16.7,13.2-17.6c4.4-2.6,2.9-21.2-2.1-32.9c-2.9-6.2-5.9-24.4-7.3-41.7c-4.4-59.3-10.6-104.3-17-121.9
	c-8.2-23.5-7.6-35,2.6-55.5c14.1-27.6,11.2-38.5-17.6-69.3c-11.2-11.8-17.9-21.4-18.2-26.1c-0.3-4.1-0.6-20.9-0.6-37.3l-0.3-29.4
	l-12-16.2c-20-26.1-21.7-31.1-21.7-64.3c0-32.6-2.9-42.6-17-58.8c-6.8-7.6-9.4-14.1-10.9-27c-1.8-14.1-3.8-18.8-12.9-27.9
	c-16.2-16.5-18.5-24.4-16.2-52l1.8-23.8l-11.5-13.2c-15.3-17-30.3-43.8-30.3-53.8c0-12.9-29.4-28.5-54.6-28.5
	c-23.2,0-29.4-2.9-51.7-24.7c-17.3-17-24.4-21.7-33.5-23.2c-48.5-7.9-49.9-8.8-59.6-31.1c-8.5-20.3-11.8-22-35-20.3
	c-10.9,0.9-21.4,1.2-23.2,0.3c-4.1-1.5-5.3-9.7-1.5-9.7c1.2,0,9.4-6.2,17.9-13.8c12.3-10.6,18.2-13.8,25.9-13.8
	c5.6,0,10.9,1.5,12,2.9c4.7,6.8,24.1,15.6,47,21.4c13.2,3.2,25.6,6.8,27,7.6c6.5,4.1,36.4,10.3,49.4,10.3c15.6,0,56.7-7.3,64.3-11.5
	c2.9-1.5,7.3-3.5,9.7-4.4c2.4-1.2,10.3-5,17.3-9.1c14.7-8.2,22-9.1,32.6-2.9c4.1,2.4,13.2,4.1,20,4.4c10.9,0,14.1-1.5,22-10.3
	c5.3-5.6,14.4-15.6,20.6-22l11.2-11.8h24.7c22,0,25.3-0.9,33.5-7.6c5-4.1,9.1-9.4,9.1-11.5s2.1-5.3,4.4-7.3c2.4-2.1,4.4-5.9,4.4-8.8
	c0-2.6,4.4-9.4,9.7-14.7c9.4-9.7,20.9-14.7,47.6-21.7c30.8-8.2,37.6-11.8,47.3-25.3c5.3-7.3,9.7-15,9.7-17c0.3-2.1-4.1-8.2-9.4-13.2
	c-5.6-5.3-11.2-15-13.5-22.6c-7.1-24.4-12.3-31.7-31.4-43.8c-18.5-11.8-29.1-24.4-32.3-38.5c-4.1-19.1-11.8-29.4-30.6-41.7
	c-19.4-12.9-29.4-26.4-33.5-45.5c-2.6-10.9-11.2-19.4-26.7-25.6c-15.6-6.5-20.6-11.5-35.3-34.1c-17.6-27.6-18.5-27.9-48.2-27
	l-25.3,0.6l-12-13.2c-11.8-12.6-13.2-13.2-28.2-13.2c-17.6,0-20-1.5-35.8-21.4c-5.9-7.6-13.8-15.6-17.3-17.3
	c-4.4-2.6-22.3-3.8-55.2-3.8c-42.6,0-49.6-0.6-54.6-5.3c-3.2-2.6-7.1-5-8.5-5c-5.3,0-25-22.3-27.3-31.1
	c-3.8-13.8,4.1-32.6,18.5-42.6c15.3-11.2,22.3-23.8,22.3-40.8c0-15,6.8-27.9,21.2-40.8l9.4-8.2l-7.3-4.1c-3.8-2.1-16.5-4.7-28.2-5.6
	c-16.5-1.5-23.8-3.8-33.8-10.6c-30.3-20-44.7-23.2-66.1-14.4c-13.2,5.6-41.1,5.6-50.8,0c-11.2-6.2-26.1-5.3-48.8,3.2
	c-29.4,11.5-40.5,11.8-61.1,2.6c-11.2-5-24.7-8.2-36.7-9.1c-16.6-1.1-22.2,0.1-39.9,7.4l0,0c-23.5,10-31.1,10.9-48.5,4.7
	c-25.3-8.8-40.2-5.9-69,13.5c-13.5,9.1-14.1,9.4-42,7.9c-32-1.8-65.2,1.2-83.4,7.6c-54.9,18.8-110.2,64.6-131.9,109.3
	c-15,30.8-17,45.2-20,148.1c-2.1,64-3.8,86.7-7.3,96.7c-2.6,7.1-4.7,15.6-4.7,19.1s-1.2,7.6-2.4,9.1c-1.2,1.8-5.6,10.9-9.4,20.3
	c-22.9,57.3-56.4,94.9-106.9,120.4c-15.9,7.6-20.6,8.8-44.4,8.8c-54.9,0-80.5-17.6-154.2-105.5c-6.8-8.2-15.6-18.2-19.4-22.6
	c-13.2-15.3-67.9-89-73.4-99.3c-2.9-5.6-7.1-12.3-8.8-14.7c-10-13.2-30.6-79.6-30.6-98.7c0-5.3-1.2-10.3-2.4-11.2
	c-2.4-1.5-77.3,74.9-79.3,80.8c-1.2,2.6,11.5,16.2,99.6,106.9c21.7,22.6,67.3,70.2,101.1,105.8c33.8,35.5,67,69.9,73.4,76.7
	c6.5,6.5,35.5,37,64.6,67.3c29.1,30.6,55.8,57.9,59.6,61.4c3.5,3.2,6.5,8.2,6.5,11.2"/>
<path class="st0" d="M1934.6,2039.3"/>
<g>
	<g>
		<path class="st0" d="M126.1,1665.6c-2.3-2.6-5-4.5-8.9-5.1c-10-1.6-15.1-2.5-25.2-4.3c-7.1,2.9-10.6,4.3-17.7,7.2
			c-1.7,0.7-1.6,2.3,0.4,7.4c0.1,0.4,0.2,0.9-0.3,1.1c-0.5,0.2-0.8,0-1.1-0.6c-4.2-8.5-8.3-17-12.3-25.6c-0.3-0.6-0.3-0.9,0.2-1.1
			s0.8,0.2,1.1,0.5c2.8,4.9,4,6,5.7,5.3c5.8-2.2,8.6-3.3,14.4-5.6c5.7-9.5,11.5-18.9,17.3-28.3c0.8-1.3,0.2-4-0.3-6
			c-0.2-0.6,0-0.7,0.4-0.9c0.5-0.2,0.7-0.2,1,0.4c4.3,9.7,6.6,14.4,11.1,24c0.3,0.5,0.1,0.8-0.3,0.9c-0.4,0.2-0.8,0.1-1.3-0.7
			c-1.8-2.8-2.7-3.8-3.3-3.5c-0.2,0.1-0.3,0.2-0.5,0.5c-5.3,8.6-7.9,12.9-13.1,21.6c8.6,1.5,12.9,2.2,21.4,3.6
			c0.8,0.1,1.5,0.1,2-0.1c1.4-0.6,1.6-2.9,0.5-7.5c-0.1-0.6-0.2-0.9,0.3-1.2c0.5-0.2,0.7,0,1.1,0.8c3.3,6.6,4.9,9.9,8.3,16.4
			c0.4,0.8,0.5,1.1,0,1.4C126.8,1666.4,126.6,1666.2,126.1,1665.6z"/>
		<path class="st0" d="M95.6,1716.6c-7.4-14.1-6.4-31.9,9.3-39.3c15.3-7.2,31.6,3.6,39.1,16.5c7.6,13.2,6.3,31.6-8.6,39
			C120,1740.6,103,1730.5,95.6,1716.6z M140.4,1693.8c-4.7-9.2-16.8-8.9-25.1-4.9c-10.2,4.9-21.9,15.7-15.9,27.6
			c4.8,9.3,17.1,9,25.4,5C134.3,1716.9,146.2,1705.2,140.4,1693.8z"/>
		<path class="st0" d="M193.7,1780.3c-3.3-3.4-6.1-4.5-8.8-3c-8.7,5.1-13.1,7.6-21.8,12.7c-11.9,6.6-23.4-0.1-30.3-10.2
			c-7-10.1-7.9-25.3,4.2-31.8c9.8-5.1,14.8-7.7,24.5-12.8c1.7-0.9,1.5-2.2-0.5-6.5c-0.2-0.5-0.3-0.8,0.2-1.1
			c0.5-0.3,0.7-0.2,1.1,0.5c5.1,8.6,7.8,12.9,13.1,21.4c0.4,0.6,0.4,0.8-0.1,1.1c-0.5,0.3-0.8,0.1-1.1-0.3c-2.8-3.5-3.9-4.4-5.6-3.5
			c-9.4,5.1-14.2,7.7-23.6,12.8c-9.9,5.3-10.8,13.5-5.7,21.5c4.8,7.6,13.1,10,21.5,5.2c8.7-5,13.1-7.5,21.8-12.5
			c2.7-1.6,2.7-4.9,0.7-9.1c-0.2-0.4-0.3-0.8,0.2-1.1c0.5-0.3,0.7-0.1,1.1,0.4c4.1,6.3,6.1,9.4,10.3,15.6c0.4,0.6,0.4,0.8-0.1,1.1
			C194.4,1781,194.1,1780.7,193.7,1780.3z"/>
		<path class="st0" d="M185.5,1797.1c-0.2-0.2-0.3-0.4-0.4-0.5c-0.2-0.3-0.1-0.6,0.3-0.9c0.2-0.2,0.3-0.3,0.4-0.3
			c0.4-0.2,0.6,0,1.3,0.7c4,3.9,8.5,4,11.4,2.3c0.3-0.2,0.5-0.3,0.8-0.6c-1.2-0.6-2.6-1.9-3.5-3.2c-2.3-3.3-1.6-7.1,1.1-8.8
			c3.1-1.9,7.2-0.5,9.5,2.8c2.6,3.8,1.9,8.2-1.6,10.9c-0.5,0.4-0.9,0.7-1.5,1C197.5,1804,191.1,1803.1,185.5,1797.1z"/>
		<path class="st0" d="M254.8,1863.1c-4.1-2.9-7.6-3.9-10.3-3.3c-15.4,3.5-31,6.7-46.6,9.6c-1.4,0.2-3-0.2-4.1-1.6
			c-1-1.3-0.9-3-0.3-4.1c8-14.8,16.2-29.6,24.6-44.2c0.8-1.4-0.3-3.9-1.6-6.2c-0.3-0.5-0.3-0.8,0.1-1c0.5-0.3,0.7-0.3,1.1,0.3
			c6.1,8.5,9.3,12.7,15.6,21c0.4,0.5,0.4,0.8,0,1.1c-0.4,0.3-0.8,0.2-1.5-0.5c-2.4-2.4-3.6-3.5-4.5-2.9c-0.2,0.1-0.3,0.3-0.4,0.5
			c-6.3,10.5-12.5,21.1-18.6,31.7c11.1-2.2,22.2-4.4,33.3-6.8c0.5-0.2,0.9-0.3,1.3-0.5c1.4-1,1.4-3.3-0.6-8.3
			c-0.3-0.6-0.3-0.9,0.1-1.2s0.7-0.1,1.3,0.6c4.7,6.1,7.1,9.1,12,15c0.6,0.7,0.7,1,0.3,1.3C255.6,1863.6,255.3,1863.5,254.8,1863.1z
			"/>
		<path class="st0" d="M260.6,1924.6c-3.4,1.2-10.2,4.4-12.7,5.7c-1,0.5-1.3,0.4-1.9-0.3c-7.8-9.1-11.1-13.4-14.4-17.2
			c-6.7-7.9-9.9-11.9-16.4-19.9c-0.5-0.6-0.5-0.8,0-1.1s0.8-0.1,1.2,0.2c3.4,3.5,4.7,4.2,6.2,3.2c11.5-8.3,23-16.6,34.4-25
			c1.5-1.1,1.1-2.5-1.4-6.3c-0.3-0.4-0.4-0.7,0.1-1.1c0.4-0.3,0.7-0.3,1.1,0.3c6.2,7.7,12.5,15.3,19,22.7c3.1,3.6,6.2,6.9,9.9,10.4
			c0,0.1,0.1,0.1,0.2,0.2c0.4,0.4,0.6,1.2,0,1.8c-1.8,1.9-6.5,6.8-8.6,9.4c-0.1,0.1-0.2,0.1-0.2,0.2c-0.3,0.2-0.4,0.2-0.7-0.1
			c-0.2-0.2-0.4-0.2-0.5-0.3c-0.3-0.4-0.2-0.7,0-1.1c3.5-6.8,2.4-13.9-2.3-19.4c-2.6-3-3.8-4.5-6.4-7.5c-6.7,5.1-10,7.6-16.8,12.6
			c0.9,1.1,4.4,5.3,5.1,5.9c1,1,2.6,1.7,4,2c2.4,0.4,7.5,0,9.4-0.6c0.4-0.2,0.6-0.1,0.9,0.2c0.1,0.1,0.2,0.3,0.3,0.4
			c0.3,0.5,0.3,0.8,0,1.1c0,0-0.1,0.1-0.2,0.1c-2.8,1.2-7.2,3.8-8.9,5.2c-2,1.6-5.6,5.1-7.2,7.2c-0.1,0-0.1,0.1-0.2,0.1
			c-0.3,0.3-0.6,0.1-1.1-0.2c-0.1-0.1-0.2-0.2-0.3-0.2c-0.3-0.4-0.3-0.6-0.1-1c1-1.7,2.5-6.4,2.4-8.6c-0.1-1.2-0.4-2.8-1.3-4
			c-0.5-0.7-4-4.9-4.9-6c-6.4,4.7-9.6,7.1-15.9,11.8c-1.4,1-0.8,2.5-0.3,3.4c0.5,1,1.9,2.8,3.4,4.5c2.3,2.7,4.9,5.4,6.3,6.3
			c4.8,3,10.1,4.2,17.7,3.2c0.5,0,0.9,0,1.2,0.3c0.1,0.1,0.2,0.3,0.3,0.5c0.2,0.5,0.3,0.7,0.1,0.9
			C260.8,1924.5,260.7,1924.5,260.6,1924.6z"/>
		<path class="st0" d="M338,1955c-3.9-3.2-5-3.7-6.5-2.5c-8.2,7.3-16.5,14.7-24.8,22c-7.9,7.7-18.4,3.1-24.7-3.9
			c-6-6.7-7.1-12.1-3-15.4c2.2-1.8,5-1.8,7.5,0.8c2.6,2.8,2.5,5.3,0.4,7.1c-1.6,1.3-2.4,0.7-3.6,1.7s-1.2,1.9,0.7,3.8
			c1.4,1.4,4.9,2.7,11.9-3.3c8.7-7.5,17.4-15,26.1-22.6c1.4-1.2,1-2.4-2.2-6.3c-0.2-0.3-0.4-0.7,0-1.1c0.4-0.4,0.7-0.3,1.1,0.2
			c7.2,7.4,10.8,11.1,18.1,18.4c0.5,0.5,0.5,0.7,0.1,1.1C338.8,1955.4,338.4,1955.3,338,1955z"/>
		<path class="st0" d="M387.2,2000.9c-4-2.4-7-2.8-9.2-0.6c-7.1,7.2-10.7,10.7-17.9,17.8c-9.7,9.3-22.4,6.1-31.7-1.9
			c-9.3-8-13.8-22.3-3.8-31.6c8.2-7.5,12.3-11.2,20.4-18.7c1.4-1.3,0.9-2.5-2.1-6.1c-0.3-0.4-0.5-0.7,0-1.1c0.4-0.4,0.6-0.3,1.1,0.2
			c7.1,6.9,10.7,10.4,17.9,17.2c0.5,0.4,0.6,0.7,0.2,1.1c-0.5,0.4-0.8,0.3-1.1,0c-3.6-2.6-4.9-3.2-6.2-1.9
			c-7.8,7.4-11.7,11.1-19.6,18.4c-8.2,7.6-7,15.8-0.1,22.1c6.5,6,15.1,6.2,22-0.6c7.2-7,10.7-10.6,17.9-17.7c2.2-2.2,1.4-5.4-1.5-9
			c-0.3-0.3-0.5-0.7-0.1-1.1c0.4-0.4,0.7-0.3,1.1,0.1c5.5,5,8.2,7.4,13.8,12.3c0.5,0.4,0.6,0.7,0.2,1.1
			C388,2001.4,387.6,2001.2,387.2,2000.9z"/>
		<path class="st0" d="M373.4,2056.1c-4.9-4.1-10.1-10.4-12.5-14.8c-0.6-0.9-0.6-1.5-0.3-1.9c1.6-2.1,5.6-7.6,7.4-10.9
			c0.1-0.1,0.1-0.3,0.2-0.3c0.2-0.2,0.5-0.2,0.9,0c0.2,0.1,0.4,0.2,0.5,0.3c0.4,0.3,0.4,0.6,0.2,1c-3,10.7,1.2,20.2,6.3,24.5
			c6.7,5.7,12.5,6.7,15.6,3.4c3.2-3.4,2.2-9.5-4.1-18.6c-4.6-6.7-11.4-18.6-4-25.8c7.8-7.7,20.2-1.7,27,4.6c3.2,2.7,6.9,7.1,8.7,9.2
			c0.2,0.3,0.6,0.6,0.9,0.8c0.8,0.7,1.9,1.3,2.6,1.8c0.4,0.2,0.7,0.4,0.9,0.5c0.5,0.4,0.4,0.7,0,1.2c-1.9,2.6-5.5,8-7.1,10.9
			c-0.1,0.1-0.2,0.2-0.2,0.3c-0.1,0.2-0.3,0.2-0.6,0c-0.2-0.1-0.4-0.2-0.5-0.3c-0.4-0.3-0.3-0.6-0.2-1c2.5-7.5-0.9-16.6-6.3-21.1
			c-7.1-6-12.1-6.7-14.9-3.8c-3,3.1-1.8,8.4,5.6,18.2c5.4,7.2,11.9,19.5,4.5,27.3C395.3,2071,381.4,2062.9,373.4,2056.1z"/>
		<path class="st0" d="M467.6,2082.6c-0.2,0-0.4-0.2-0.5-0.2c-0.4-0.3-0.4-0.6-0.4-1.1c0.9-5.8,1-11.8-1.6-15.2
			c-0.9-1.2-4-3.6-6.3-5.3c-9.5,11.3-19,22.5-28.6,33.6c-1.3,1.5-0.4,2.8,3.6,6.3c0.3,0.3,0.5,0.7,0.2,1.1c-0.4,0.4-0.6,0.4-1.2,0
			c-8.9-6.6-13.3-9.9-22-16.7c-0.5-0.4-0.6-0.7-0.3-1.1c0.4-0.4,0.7-0.3,1.2,0c4.5,2.9,6,3.4,7.3,2c9.7-11.1,19.4-22.1,28.9-33.3
			c-2.1-1.6-5.4-4-6.8-4.6c-3.9-1.5-10.1-0.3-16.1,1.8c-0.5,0.1-0.9,0.2-1.2-0.1c-0.1-0.1-0.3-0.2-0.3-0.4c-0.3-0.4-0.3-0.7,0.3-1
			c3.4-2.3,8.1-6.1,11-8.8c0.6-0.6,1-0.6,1.5-0.2c0,0,0.1,0.1,0.1,0.1c7.8,7,11.4,9.7,18.8,15.3c7.5,5.6,11,8.3,19.9,13.9
			c0.1,0.1,0.1,0.1,0.1,0.1c0.5,0.3,0.5,0.7,0.1,1.4c-2.2,3.2-5.2,8.4-6.8,12.1C468.5,2082.7,468.1,2082.8,467.6,2082.6z"/>
		<path class="st0" d="M503.4,2150.2c-9.1-5.9-18.1-11.8-27-17.8c-0.6-0.4-0.7-0.6-0.4-1.1c0.3-0.4,0.7-0.4,1.2-0.1
			c4.3,2.4,5.8,2.7,6.9,1.3c8.6-11.2,17.2-22.5,25.8-33.8c1.1-1.5,0.4-2.7-3.3-5.6c-0.4-0.3-0.6-0.6-0.2-1.1c0.3-0.4,0.8-0.3,1.2,0
			c8.2,5.5,16.6,10.7,25,16c10.6,6.7,14.8,14.6,10.2,21.2c-3.8,5.5-11.3,6.8-18.1,2.7c-0.8-0.5-1.4-0.7-1.4-0.6
			c-0.1,0.1,0.3,0.5,1.1,1c8.2,5.3,11.4,13.6,7.4,19.3C524.8,2161.4,511.1,2155.7,503.4,2150.2z M514.9,2128
			c-1.4-1.1-3.8-2.7-5.3-3.7c-0.8-0.5-1.3-0.8-1.3-0.8c-4.7,6.3-7.1,9.5-11.8,15.8c-1.1,1.5,2,4.6,5.6,7c5.8,3.8,12.5,5.2,17.6-1.8
			C523.3,2139.4,522.2,2133.8,514.9,2128z M527.8,2107.9c-2-1.3-4.9-3-5.5-3.3c-4.9,6.6-7.3,9.9-12.2,16.6c1.7,1.4,5.8,4.1,6.6,4.6
			c5.4,3.4,11,1.9,14.9-3.5C535.1,2117.3,533.2,2111.4,527.8,2107.9z"/>
		<path class="st0" d="M583.7,2181.1c-2.8,2.3-8.2,7.6-10,9.6c-0.8,0.8-1.1,0.8-1.9,0.4c-10.5-6-15.1-8.8-19.5-11.4
			c-9-5.2-13.5-7.8-22.3-13.1c-0.7-0.4-0.7-0.6-0.4-1.1s0.7-0.4,1.2-0.2c4.4,2.1,5.9,2.4,6.9,0.9c8.1-11.7,16.1-23.4,24-35.1
			c1.1-1.6,0.2-2.7-3.5-5.4c-0.4-0.3-0.6-0.5-0.3-1.1c0.3-0.4,0.5-0.5,1.2-0.1c8.5,5.1,17.1,10.1,25.8,15c4.2,2.4,8.3,4.4,13,6.5
			c0.1,0,0.2,0.1,0.2,0.1c0.5,0.3,1,0.9,0.6,1.7c-1.1,2.4-3.9,8.6-5,11.8c-0.1,0.1-0.1,0.2-0.2,0.2c-0.2,0.3-0.3,0.3-0.7,0.2
			c-0.2-0.1-0.4-0.1-0.6-0.2c-0.4-0.2-0.4-0.6-0.4-1c1-7.6-2.5-13.9-8.8-17.5c-3.5-2-5.2-2.9-8.6-4.9c-4.6,7-6.9,10.5-11.6,17.5
			c1.2,0.7,6,3.5,6.8,3.9c1.3,0.6,3,0.8,4.5,0.6c2.4-0.4,7.1-2.5,8.7-3.7c0.3-0.3,0.6-0.3,0.9-0.1c0.1,0.1,0.3,0.2,0.4,0.3
			c0.4,0.4,0.6,0.6,0.4,1c0,0.1-0.1,0.1-0.1,0.2c-2.2,2.1-5.5,6-6.7,7.9c-1.4,2.1-3.5,6.7-4.4,9.2c0,0.1-0.1,0.1-0.1,0.2
			c-0.2,0.3-0.5,0.3-1.1,0.2c-0.2-0.1-0.3-0.1-0.3-0.1c-0.5-0.3-0.5-0.5-0.4-0.9c0.4-2,0.2-6.9-0.6-8.9c-0.5-1.1-1.4-2.5-2.5-3.3
			c-0.8-0.5-5.5-3.3-6.7-4c-4.4,6.6-6.6,9.9-11.1,16.5c-1,1.4,0.1,2.6,0.9,3.3c0.8,0.7,2.7,2,4.7,3.1c3.1,1.8,6.5,3.4,8.1,3.8
			c5.5,1.2,11,0.6,17.9-2.9c0.5-0.2,0.8-0.3,1.2-0.1c0.2,0.1,0.3,0.2,0.5,0.4c0.4,0.4,0.6,0.5,0.4,0.8
			C583.9,2181,583.8,2181,583.7,2181.1z"/>
		<path class="st0" d="M637,2208.5c-2.7,2.4-7.8,7.9-9.6,10.1c-0.7,0.9-1.1,0.8-1.9,0.5c-10.8-5.5-15.5-8.1-20.1-10.4
			c-9.3-4.7-13.9-7.1-23-12.1c-0.7-0.4-0.8-0.6-0.5-1c0.3-0.5,0.7-0.4,1.2-0.2c4.5,1.9,6,2.1,7,0.5c7.5-12,14.9-24.1,22.3-36.2
			c1-1.6,0.1-2.7-3.8-5.3c-0.4-0.3-0.7-0.5-0.3-1c0.3-0.5,0.5-0.5,1.2-0.1c8.8,4.7,17.7,9.3,26.6,13.8c4.3,2.2,8.5,4,13.3,5.9
			c0.1,0,0.2,0.1,0.2,0.1c0.5,0.3,1,0.8,0.7,1.6c-1,2.4-3.5,8.8-4.4,12c-0.1,0.1-0.1,0.2-0.1,0.2c-0.2,0.3-0.3,0.3-0.7,0.2
			c-0.3-0.1-0.5-0.1-0.6-0.1c-0.5-0.2-0.5-0.5-0.4-1c0.7-7.6-3.2-13.8-9.7-17.1c-3.6-1.8-5.3-2.7-8.9-4.5c-4.3,7.2-6.4,10.8-10.8,18
			c1.3,0.7,6.2,3.2,7,3.5c1.3,0.5,3.1,0.6,4.5,0.4c2.4-0.6,7-2.9,8.5-4.1c0.3-0.3,0.6-0.3,0.9-0.2c0.2,0.1,0.3,0.1,0.4,0.3
			c0.5,0.4,0.6,0.6,0.4,1c0,0.1-0.1,0.1-0.1,0.2c-2.1,2.2-5.2,6.3-6.3,8.2c-1.3,2.2-3.2,6.9-3.9,9.4c0,0.1-0.1,0.1-0.1,0.2
			c-0.2,0.4-0.5,0.4-1.1,0.2c-0.2-0.1-0.3-0.1-0.3-0.1c-0.5-0.2-0.5-0.5-0.5-0.9c0.3-2-0.2-6.9-1.1-8.9c-0.5-1.1-1.5-2.5-2.7-3.2
			c-0.8-0.5-5.7-3-6.9-3.7c-4.1,6.8-6.1,10.2-10.3,17c-0.9,1.5,0.2,2.6,1,3.2c0.9,0.7,2.8,1.8,4.9,2.9c3.2,1.6,6.7,3.1,8.3,3.4
			c5.6,1,11,0.1,17.8-3.8c0.5-0.2,0.8-0.4,1.2-0.2c0.2,0.1,0.3,0.2,0.5,0.4c0.4,0.3,0.6,0.5,0.4,0.8
			C637.2,2208.4,637,2208.4,637,2208.5z"/>
		<path class="st0" d="M714.9,2204.7c-4.6-1-7.8-0.2-9.1,2.4c-6.3,12.7-12.8,25.4-19.2,38c-0.1,0.2-0.3,0.5-0.3,0.7
			c-0.6,1.2-0.9,1.6-1.7,1.2c-1.8-0.8-2.5-1.4-3.2-3.4c-5.2-17.5-10.2-35.1-14.9-52.8c-5.7,10.5-11.4,20.9-17.2,31.3
			c-1.5,2.6,0.4,5.8,4.4,8.4c0.4,0.3,0.8,0.6,0.5,1.1c-0.3,0.5-0.6,0.5-1.2,0.2c-7.2-3.3-10.7-4.9-17.8-8.4c-0.6-0.3-0.8-0.5-0.5-1
			c0.3-0.5,0.7-0.4,1.2-0.3c4.8,1.5,8,0.7,9.4-1.9c6.3-11.3,12.5-22.6,18.7-33.9c0-3.1-1.8-4.1-4.5-6.3c-0.4-0.3-0.7-0.5-0.4-1
			c0.3-0.5,0.6-0.5,1.2-0.2c6.7,3.2,10.1,4.8,16.8,7.8c1.1,0.5,1.4,1.1,1.7,2c3.7,13.2,7.5,26.4,11.6,39.5c4.7-9.1,7-13.6,11.5-22.8
			c1.3-2.7-0.6-5.8-4.5-8.2c-0.3-0.2-0.7-0.4-0.4-1c0.3-0.5,0.5-0.5,1.2-0.3c7,3,10.5,4.5,17.6,7.5c0.6,0.3,0.8,0.5,0.5,1
			C715.8,2204.9,715.4,2204.8,714.9,2204.7z"/>
		<path class="st0" d="M766.9,2256.4c-4-1.4-7.3-3.2-9.8-5c-2.8,6.3-4.2,9.4-7,15.6c-0.8,1.7,0.7,2.8,5.2,4.9c0.4,0.2,0.7,0.5,0.5,1
			s-0.5,0.5-1.2,0.3c-10.2-3.7-15.3-5.5-25.5-9.4c-0.5-0.2-0.8-0.5-0.6-1c0.2-0.5,0.6-0.5,1.1-0.4c4.7,1.4,6.3,1.4,7-0.3
			c5.9-12.9,11.8-25.8,17.6-38.8c0.8-1.8-0.3-2.8-4.5-4.8c-0.4-0.2-0.7-0.4-0.5-1c0.2-0.5,0.7-0.5,1.1-0.3c9.3,3.5,18.8,6.8,28.2,10
			c0.1,0,0.2,0.1,0.2,0.1c8.8,2.5,20.5,10.7,16.2,21.3C790.5,2260.5,777.4,2260.1,766.9,2256.4z M775.1,2228.7
			c-1.7-0.6-6.4-2.1-7.1-2.2c-3.6,8.4-5.5,12.6-9.2,21c-0.5,1.3,3.1,3.7,7.3,5.2c6.2,2.2,12.5-0.1,15.8-8
			C784.8,2237.9,782,2231.2,775.1,2228.7z"/>
		<path class="st0" d="M814.7,2292.9c-10.7-3.2-16.1-4.9-26.7-8.4c-0.7-0.2-0.9-0.4-0.7-0.9c0.2-0.5,0.6-0.5,1.1-0.4
			c5.1,1.1,6.8,1.3,7.4-0.5c5.3-13.2,10.6-26.5,15.8-39.8c0.7-1.7-0.5-2.5-5.2-4.5c-0.5-0.2-0.8-0.4-0.5-1c0.2-0.5,0.4-0.6,1.1-0.4
			c10.2,3.3,15.3,4.9,25.7,8c0.7,0.2,0.8,0.4,0.7,0.9c-0.2,0.6-0.6,0.5-1.1,0.5c-5-1-6.5-1.1-7.2,0.7c-5,13.3-10.2,26.6-15.3,39.9
			c-0.7,1.7,0.6,2.6,5.5,4.5c0.4,0.2,0.8,0.4,0.6,1C815.7,2293.1,815.4,2293.1,814.7,2292.9z"/>
		<path class="st0" d="M845.3,2303c-6.4-1.8-13.9-5.3-18.1-8.3c-0.9-0.6-1.2-1.1-1.1-1.6c0.7-2.6,2-9.3,2.2-13c0-0.1,0-0.3,0-0.4
			c0.1-0.3,0.4-0.4,0.9-0.4c0.3,0,0.4,0.1,0.6,0.1c0.5,0.1,0.6,0.4,0.6,0.8c1.8,11,9.8,17.9,16.5,19.8c8.7,2.4,14.6,1,16.1-3.3
			c1.5-4.4-2.1-9.6-11.9-15.3c-7-4.1-18.7-12.2-14.9-21.9c4-10.4,18.4-9.8,27.3-7c4.2,1.1,9.5,3.7,12.1,4.8c0.3,0.1,0.8,0.3,1.2,0.4
			c1.1,0.3,2.3,0.5,3.2,0.5c0.4,0,0.8,0.1,1,0.1c0.6,0.1,0.7,0.5,0.5,1.1c-0.7,3.2-1.7,9.5-2,12.9c0,0.1-0.1,0.3-0.1,0.3
			c-0.1,0.2-0.2,0.3-0.5,0.3c-0.3,0-0.5,0-0.6,0c-0.5-0.1-0.6-0.4-0.6-0.9c-0.9-7.9-8-14.7-15.1-16.6c-9.2-2.5-14.2-1.1-15.6,2.7
			c-1.5,4.1,2,8.4,13.2,14.3c8,4.2,19.6,12.8,16,23.1C872.1,2307.7,855.6,2305.9,845.3,2303z"/>
		<path class="st0" d="M903.7,2317.6c-6.5-1.5-14.3-4.7-18.5-7.5c-0.9-0.5-1.3-1-1.2-1.6c0.5-2.6,1.5-9.4,1.6-13.1
			c0-0.1,0-0.3,0-0.4c0.1-0.3,0.4-0.4,0.9-0.4c0.3,0,0.4,0,0.6,0.1c0.5,0.1,0.6,0.4,0.7,0.8c2.3,10.9,10.7,17.5,17.5,19
			c8.9,2,14.7,0.3,16-4.1c1.3-4.5-2.5-9.5-12.7-14.8c-7.2-3.7-19.3-11.3-16-21.2c3.5-10.6,18-10.6,27-8.2c4.2,0.9,9.8,3.2,12.4,4.2
			c0.3,0.1,0.8,0.2,1.2,0.3c1.1,0.2,2.4,0.4,3.2,0.4c0.4,0,0.8,0,1,0.1c0.6,0.1,0.7,0.4,0.6,1.1c-0.5,3.2-1.2,9.6-1.4,13
			c0,0.1-0.1,0.3-0.1,0.3c-0.1,0.2-0.2,0.3-0.5,0.3c-0.3,0-0.5,0.1-0.6,0c-0.5-0.1-0.6-0.4-0.7-0.8c-1.3-7.8-8.8-14.3-15.9-15.9
			c-9.4-2.1-14.3-0.4-15.5,3.4c-1.3,4.1,2.4,8.3,13.9,13.7c8.2,3.8,20.3,11.9,17.2,22.3C930.9,2321.1,914.1,2320,903.7,2317.6z"/>
		<path class="st0" d="M966.7,2328.9c-9.3-1.6-18.6-3.3-27.9-5.1c-0.7-0.1-0.9-0.3-0.8-0.9c0.2-0.5,0.5-0.6,1.1-0.6
			c5.3,0.4,6.9,0.4,7.4-1.4c3.7-13.8,7.3-27.6,10.9-41.3c0.5-1.8-0.9-2.4-5.8-3.9c-0.5-0.2-0.8-0.3-0.7-0.9c0.1-0.5,0.3-0.6,1.1-0.5
			c10.7,2.1,16.1,3,26.8,4.9c0.7,0.1,0.9,0.3,0.8,0.8c-0.1,0.6-0.6,0.6-1,0.6c-5.2-0.4-6.7-0.3-7.2,1.5
			c-3.4,13.8-6.9,27.7-10.5,41.5c-0.5,1.8,0.9,2.5,6,3.9c0.4,0.1,0.8,0.4,0.7,0.9C967.7,2329,967.4,2329.1,966.7,2328.9z"/>
		<path class="st0" d="M1046.6,2290.4c-4.9,0.3-7.8,1.9-8.4,4.8c-2.7,14-5.4,27.9-8.3,41.8c-0.1,0.3-0.1,0.5-0.2,0.7
			c-0.3,1.4-0.4,1.7-1.3,1.6c-2.1-0.3-2.9-0.7-4.1-2.4c-10.2-15.4-20.1-31-29.7-46.8c-2.6,11.6-5.3,23.2-8.1,34.8
			c-0.7,2.9,2.1,5.5,6.8,6.9c0.5,0.1,0.9,0.4,0.8,0.9c-0.1,0.5-0.4,0.6-1.1,0.5c-8-1.2-12-1.9-20-3.2c-0.7-0.1-0.9-0.3-0.8-0.8
			s0.6-0.6,1.1-0.6c5.2,0.1,8-1.5,8.7-4.4c3-12.5,6-25.1,8.9-37.7c-0.9-3-2.9-3.4-6.3-4.8c-0.5-0.2-0.8-0.3-0.7-0.9
			c0.1-0.5,0.4-0.6,1.1-0.5c7.5,1.3,11.3,1.8,18.9,3c1.3,0.2,1.7,0.7,2.2,1.5c7.4,11.8,15,23.3,22.7,34.9c2-10,3-15,5-25.1
			c0.6-3-2.2-5.4-6.8-6.7c-0.4-0.1-0.8-0.3-0.7-0.9c0.1-0.5,0.4-0.6,1.1-0.6c7.8,1,11.7,1.5,19.6,2.4c0.7,0.1,0.9,0.2,0.8,0.8
			C1047.5,2290.3,1047.1,2290.4,1046.6,2290.4z"/>
		<path class="st0" d="M1113.6,2323.3c-3.4,0.2-5.1,0.7-5.3,2.5c-0.8,6-1.3,9-2.1,15c-0.1,0.5-0.2,0.7-1.1,1.1
			c-5.3,2.4-15.4,3.5-26.6,2.7c-16.5-1.2-33-11.8-29.6-29.7c3.3-16.9,20.2-25,36.8-23.4c4.3,0.4,11,1.6,14.8,2.9
			c1,0.4,2.8,0.7,4.2,0.8c0.2,0,0.4,0,0.6,0c0.5,0,1,0,1.3,0c0.9,0.1,1.2,0.2,1.2,1c0,3.1,0.4,9.6,0.3,12.7c0,0.1,0,0.2,0,0.3
			c-0.1,0.3-0.2,0.4-0.6,0.4c-0.2,0-0.4,0-0.4,0c-0.6,0-0.7-0.4-0.9-0.7c-4.3-9.9-10.4-13.3-20.3-14.2c-11.2-1-19.3,7.9-20.9,18.3
			c-2,12.8,2.6,27,17,28.4c7.1,0.7,9.9-0.3,10.5-3.9c0.8-5.2,1.2-7.7,2-12.9c0.3-1.8-1.2-2.5-5.2-3.2c-0.8-0.1-0.9-0.4-0.8-0.9
			c0.1-0.5,0.4-0.6,1.4-0.5c9.6,0.7,14.3,1.1,23.9,1.6c1,0.1,1.2,0.1,1.2,0.7C1114.6,2323,1114.5,2323.2,1113.6,2323.3z"/>
		<path class="st0" d="M1188.2,2349.3c-16-0.2-32.3-9.2-31-27.1c1.2-17.4,19.9-26.1,35.1-26.4c15.3-0.3,32.3,8.9,31.4,26.3
			C1222.7,2339.9,1204.2,2349.5,1188.2,2349.3z M1190.4,2299.1c-10.6-0.3-16.7,10-17.4,19.7c-0.8,11.6,3.4,26.8,17,27.2
			c10.7,0.3,16.9-10.4,17.6-19.9C1208.5,2315,1203.5,2299.4,1190.4,2299.1z"/>
		<path class="st0" d="M1296.2,2293.8c-4.9,1.2-7.5,3.4-7.5,6.4c0,14.2,0,28.5-0.1,42.7c0,0.3,0,0.6,0,0.8c0,1.4-0.1,1.8-1,1.9
			c-2.1,0.2-3-0.1-4.7-1.6c-13.3-13.1-26.3-26.4-39.2-39.9c-0.4,11.9-0.8,23.8-1.3,35.7c-0.1,3,3.2,4.9,8.2,5.4c0.6,0,1,0.2,1,0.7
			s-0.3,0.7-1,0.7c-8.3,0.4-12.5,0.6-20.8,0.8c-0.7,0-1-0.1-1-0.7c0-0.6,0.5-0.7,0.9-0.8c5.3-0.9,7.8-3.1,7.9-6
			c0.6-12.9,1.1-25.8,1.5-38.7c-1.5-2.8-3.6-2.8-7.3-3.5c-0.5-0.1-0.9-0.1-0.8-0.7c0-0.6,0.3-0.7,1-0.7c7.8-0.3,11.8-0.4,19.6-0.8
			c1.3-0.1,1.8,0.4,2.5,1c9.8,10,19.7,19.9,29.8,29.7c0.1-10.2,0.1-15.3,0.1-25.6c0-3-3.3-4.8-8.2-5.2c-0.4,0-0.9-0.1-0.9-0.7
			c0-0.6,0.3-0.7,1-0.8c8.1-0.6,12.1-0.9,20.2-1.6c0.7-0.1,1,0.1,1,0.6C1297.2,2293.6,1296.8,2293.7,1296.2,2293.8z"/>
		<path class="st0" d="M1401.5,2330.6c-9.8,1.6-19.6,3.1-29.4,4.5c-0.7,0.1-1-0.1-1-0.5c0-0.6,0.2-0.8,1.3-1.1
			c3.7-0.9,5.1-1.4,5.1-2.4c0-0.2-0.1-0.4-0.2-0.7c-2.4-3.9-3.7-5.9-6.1-9.9c-9.2,1.3-13.8,1.9-23.1,3.1c-1.3,3.1-2,4.6-3.4,7.7
			c-0.3,0.7-0.5,1.4-0.5,1.9c0.1,1.9,2.4,2.8,8.5,2.9c0.7,0,1,0.1,1,0.7s-0.3,0.7-1.4,0.8c-8.5,1.1-12.8,1.6-21.3,2.5
			c-1.1,0.1-1.4,0.1-1.4-0.5s0.2-0.7,1-0.9c5-1.5,7.5-3.7,8.9-7c6.9-15.3,13.5-30.8,19.8-46.3c0.5-1.1,1.1-1.6,2.6-1.8
			c1.5-0.2,2.2,0.1,2.8,1.1c9.5,14.2,19.1,28.3,28.9,42.3c1.1,1.6,4,2.3,7.8,2c0.7-0.1,0.9,0.1,1,0.5
			C1402.4,2330.2,1402.2,2330.4,1401.5,2330.6z M1358.3,2299.5c-3.5,8.4-5.3,12.7-9,21.1c8.1-1,12.1-1.6,20.2-2.7
			C1365,2310.5,1362.7,2306.8,1358.3,2299.5z"/>
		<path class="st0" d="M1464.3,2319.8c-6.9,1.5-15.8,1.9-21.2,1.2c-1.1-0.1-1.7-0.4-1.8-0.9c-0.6-2.5-2.4-9.2-4-12.6
			c0-0.1-0.1-0.3-0.1-0.3c0-0.3,0.2-0.6,0.7-0.8c0.3-0.1,0.4-0.2,0.6-0.2c0.6-0.1,0.8,0.1,1,0.4c5.9,7.5,15.8,11.5,25.1,9.6
			c9.4-1.9,14.4-6.1,13.8-10.7c-0.6-4.6-6.5-7.6-18.5-7.9c-8.1-0.2-23.6-1.7-24.6-12.3c-1-11.4,13.4-17.5,22.9-19.2
			c4.5-1,10.9-1.3,13.9-1.6c0.4,0,0.9-0.1,1.3-0.2c1.2-0.3,2.5-0.7,3.3-1.1c0.4-0.2,0.8-0.3,1-0.4c0.6-0.1,0.8,0.1,1,0.7
			c0.9,3.1,2.8,9.3,4.2,12.4c0,0.1,0,0.3,0.1,0.3c0,0.2-0.1,0.4-0.4,0.5c-0.3,0.1-0.4,0.2-0.6,0.3c-0.5,0.1-0.8-0.1-1-0.5
			c-4.6-6.5-14.6-9.2-22.2-7.5c-10,2.2-14.2,5.8-13.7,9.9c0.5,4.3,5.8,6.5,19.3,6.4c9-0.1,24.8,1.7,26.2,12.7
			C1492.2,2311.4,1475.1,2317.5,1464.3,2319.8z"/>
		<path class="st0" d="M1555.2,2280.7c-0.6,3.7-1,11.3-1,14.1c0,1.1-0.3,1.4-1.2,1.6c-12.9,3.5-18.7,4.9-24.1,6.4
			c-9.2,2.5-18.4,4.9-27.7,7.1c-0.8,0.2-1,0.1-1.1-0.4c-0.1-0.6,0.3-0.8,0.8-1c5.1-1.7,6.5-2.6,6.2-4.4c-2.2-14.1-4.4-28.1-6.7-42.2
			c-0.3-1.9-1.8-2.1-6.9-1.2c-0.5,0.1-0.9,0.1-1-0.5c-0.1-0.5,0.1-0.7,0.9-0.9c10.7-2.7,21.3-5.6,32-8.5c5.1-1.4,10-3,15.3-5.1
			c0.1,0,0.2-0.1,0.3-0.1c0.6-0.2,1.4-0.1,1.7,0.7c0.9,2.4,3.3,8.9,4.7,11.9c0,0.1,0,0.2,0.1,0.3c0.1,0.3,0,0.4-0.4,0.6
			c-0.3,0.1-0.4,0.3-0.6,0.3c-0.5,0.2-0.8-0.1-1-0.4c-4.8-6-12.3-7.9-20.1-5.7c-4.3,1.2-6.4,1.8-10.6,2.9c1.5,8.3,2.2,12.4,3.6,20.8
			c1.5-0.4,7.4-2,8.4-2.3c1.5-0.5,3-1.7,4-2.9c1.6-2.1,3.9-7,4.3-9c0-0.4,0.3-0.6,0.6-0.7c0.2-0.1,0.4-0.1,0.6-0.1
			c0.7,0,0.9,0,1,0.4c0,0.1,0,0.1,0,0.2c-0.3,3.1,0,8.3,0.4,10.4c0.5,2.5,2.1,7.3,3.3,9.7c0,0.1,0,0.1,0,0.2
			c0.1,0.4-0.2,0.6-0.8,0.9c-0.2,0.1-0.3,0.1-0.3,0.2c-0.5,0.1-0.8,0-1-0.4c-1.2-1.7-5-4.9-7.1-5.8c-1.2-0.4-3-0.8-4.5-0.5
			c-1,0.2-6.9,1.7-8.4,2.1c1.3,7.9,2,11.8,3.3,19.6c0.3,1.7,2,1.7,3.1,1.6c1.2-0.1,3.6-0.6,6.1-1.3c3.8-1,7.8-2.4,9.3-3.3
			c5.4-3.2,9.3-7.7,12.3-15.2c0.3-0.5,0.4-0.8,0.9-1c0.2-0.1,0.4,0,0.7-0.1c0.6,0,0.8,0,0.9,0.3
			C1555.3,2280.4,1555.2,2280.5,1555.2,2280.7z"/>
		<path class="st0" d="M1628.7,2271.6c-9.7,3.5-19.4,6.8-29.1,10c-0.7,0.2-1.1,0.1-1.1-0.3c-0.1-0.5,0-0.8,1.2-1.3
			c3.6-1.6,5-2.4,4.8-3.3c-0.1-0.2-0.2-0.4-0.3-0.6c-3.1-3.4-4.7-5.1-7.8-8.6c-9.2,3.1-13.7,4.5-22.9,7.4c-0.9,3.3-1.3,4.9-2.2,8.2
			c-0.2,0.8-0.3,1.4-0.2,2c0.4,1.9,2.9,2.4,9.1,1.3c0.8-0.1,1.1-0.1,1.2,0.5c0.1,0.5-0.2,0.7-1.3,1c-8.5,2.7-12.7,3.9-21.2,6.5
			c-1.1,0.3-1.4,0.3-1.5-0.2s0.1-0.7,0.8-1.1c4.9-2.4,7-5.1,7.9-8.6c4.4-16.4,8.7-32.9,12.5-49.5c0.3-1.2,0.8-1.8,2.3-2.3
			c1.5-0.5,2.2-0.3,3,0.6c12,12.3,24.1,24.4,36.3,36.4c1.4,1.4,4.4,1.5,8.2,0.5c0.7-0.2,1-0.1,1.1,0.4
			C1629.6,2271.1,1629.5,2271.4,1628.7,2271.6z M1579.8,2249c-2.2,9-3.3,13.5-5.7,22.5c8-2.5,12.1-3.8,20.1-6.5
			C1588.3,2258.7,1585.5,2255.5,1579.8,2249z"/>
		<path class="st0" d="M1699.9,2245.1c-15,6.5-35.2,5.9-40.9-12.2c-5.5-17.6,10.9-32.9,25-39.3c14-6.3,35.2-6.4,41,11.1
			C1731.1,2223.3,1715.3,2238.5,1699.9,2245.1z M1683.4,2197.5c-10.3,4.1-13.1,15.7-9.9,25.6c3.7,11.7,13.9,23.4,27.1,18.1
			c10.3-4.1,13.1-16.2,10.1-26C1707.1,2204.1,1696,2192.5,1683.4,2197.5z"/>
		<path class="st0" d="M1781,2164.3c-0.2,0.2-0.4,0.4-0.6,0.4c-0.5,0.3-0.8,0.1-1.1-0.2c-5.9-5-13.9-5.2-21.5-1.4
			c-4.6,2.3-6.9,3.5-11.6,5.8c3,8.1,4.5,12.2,7.5,20.4c1.5-0.7,9.7-4.8,10.6-5.3c1.4-0.9,2.7-2.3,3.6-3.7c1.2-2.3,2.8-7.8,2.7-9.9
			c0-0.5,0.2-0.7,0.5-0.9c0.2-0.1,0.3-0.2,0.5-0.2c0.7-0.2,1-0.3,1.2,0c0.1,0.1,0,0.2,0,0.4c0.3,3.1,1.5,8.2,2.3,10.3
			c0.9,2.4,3.4,6.8,5.1,8.9c0.1,0.1,0.2,0.1,0.2,0.2c0.2,0.4-0.2,0.6-0.8,1.1c-0.2,0.1-0.2,0.2-0.4,0.3c-0.3,0.2-0.7,0.1-1-0.2
			c-1.4-1.4-5.9-3.8-8.2-4.2c-1.3-0.2-3.2-0.1-4.7,0.5c-1,0.4-9.2,4.5-10.6,5.2c2.8,7.7,4.1,11.5,6.9,19.2c0.6,1.8,2.7,1.4,7.8-0.7
			c0.5-0.2,1-0.3,1.2,0.3c0.2,0.5,0,0.8-0.8,1.1c-9.2,4.6-18.5,9-27.8,13.4c-0.8,0.4-1,0.3-1.2-0.2c-0.2-0.5,0.1-0.8,0.7-1.1
			c4.9-2.7,6.1-3.9,5.5-5.7c-4.6-13.5-9.3-26.9-14.1-40.4c-0.7-1.8-2.2-1.7-7.2,0.2c-0.5,0.2-0.9,0.3-1.1-0.3
			c-0.2-0.5-0.1-0.7,0.7-1.1c10.8-5.1,21.6-10.4,32.3-15.8c5-2.5,9.6-5.1,14.8-8.4c0.1,0,0.2-0.1,0.3-0.1c0.6-0.3,1.4-0.4,1.8,0.4
			c1.3,2.2,4.9,8.1,6.9,10.8c0.1,0.1,0.1,0.3,0.2,0.4C1781.4,2164,1781.3,2164.1,1781,2164.3z"/>
		<path class="st0" d="M1858.9,2140.1c-4.2,2.6-8.2,4.3-11.6,5.3c2.8,6.3,4.2,9.4,6.9,15.7c0.8,1.7,2.7,1.2,7.9-1.4
			c0.5-0.2,1-0.3,1.2,0.2c0.2,0.5,0,0.8-0.7,1.2c-9,5.4-18.1,10.7-27.3,15.9c-0.5,0.3-1,0.4-1.2-0.1s0.1-0.8,0.6-1.2
			c4.8-3.2,5.9-4.5,5.2-6.2c-5.6-13.1-11.3-26.2-17-39.3c-0.8-1.8-2.4-1.4-7.3,0.9c-0.5,0.2-0.9,0.4-1.2-0.2
			c-0.2-0.5,0.2-0.9,0.7-1.2c10.1-5.9,20.1-11.9,30-18c0.1-0.1,0.2-0.1,0.3-0.1c8.1-5,24.1-11.6,29.5-0.8
			C1881.1,2122.7,1869,2134,1858.9,2140.1z M1843.4,2115.8c-1.8,1.1-6.7,4.2-7.3,4.8c3.8,8.4,5.7,12.6,9.5,21
			c0.6,1.3,5.3-0.3,9.8-3.1c6.6-4,9.7-10.8,6-18.7C1858.3,2113,1850.8,2111.3,1843.4,2115.8z"/>
		<path class="st0" d="M1925.2,2121.4c-9.1,6.1-18.3,12.1-27.5,18.1c-0.7,0.4-1,0.5-1.3,0s0.1-0.9,0.5-1.2c4.8-3.8,6.3-5.1,5.4-6.8
			c-6.3-12.9-12.6-25.8-19-38.6c-0.8-1.7-2.4-1.1-7.7,1.7c-0.5,0.3-0.9,0.4-1.2-0.1c-0.2-0.5-0.1-0.7,0.6-1.2
			c8.9-5.7,17.7-11.6,26.5-17.6c0.7-0.4,1-0.5,1.2,0c0.3,0.6-0.1,0.9-0.5,1.2c-4.7,3.8-6,5.1-5.1,6.8c6.6,12.8,13,25.6,19.4,38.4
			c0.8,1.7,2.5,1.1,7.8-1.9c0.5-0.2,0.9-0.4,1.2,0.1C1926.1,2120.6,1925.9,2120.9,1925.2,2121.4z"/>
		<path class="st0" d="M1957.1,2100.7c-6.4,4.6-15.1,9-20.7,10.8c-1.2,0.5-1.8,0.4-2.1-0.1c-1.5-2.1-5.7-7.5-8.5-10
			c-0.1-0.1-0.2-0.2-0.2-0.3c-0.2-0.3,0-0.6,0.4-1c0.2-0.2,0.4-0.4,0.6-0.5c0.5-0.4,0.8-0.3,1.1,0c9.1,4.6,20.3,3.5,28.5-2.3
			c8.7-6.1,12.3-12.4,10-16.4c-2.3-4.1-8.9-3.6-21.4,1c-7.7,2.8-24,9.8-28.9-0.4c-5-10.3,7.6-23.1,16-28.6c4.2-3,10.4-6.2,13.3-7.9
			c0.4-0.2,0.8-0.5,1.3-0.8c1.1-0.8,2.2-1.8,3-2.5c0.4-0.4,0.7-0.7,0.9-0.8c0.6-0.4,0.9-0.3,1.3,0.2c2,2.6,6.2,7.5,8.6,9.8
			c0.1,0.1,0.1,0.2,0.2,0.3c0.1,0.2,0.1,0.4-0.2,0.7c-0.2,0.2-0.3,0.4-0.5,0.6c-0.5,0.4-0.8,0.3-1.2,0c-6.9-4.1-17.9-2-24.9,3.1
			c-9.3,6.7-12.1,12-10.1,15.6c2.1,3.8,7.9,2.8,21.6-2.8c8.4-3.5,24.9-10.5,30.7,0.1C1982.4,2080.7,1966.1,2093.4,1957.1,2100.7z"/>
		<path class="st0" d="M2014.5,2057.4c-6.3,5-14.9,10-20.4,12.1c-1.1,0.5-1.8,0.5-2.1,0.1c-1.6-2-6.1-7.3-9-9.6
			c-0.1-0.1-0.2-0.2-0.3-0.2c-0.2-0.3,0-0.6,0.3-1.1c0.2-0.3,0.4-0.4,0.6-0.5c0.5-0.4,0.8-0.3,1.1-0.1c9.5,4.1,20.7,2.3,28.7-4
			c8.5-6.7,11.8-13.2,9.4-17.1c-2.5-4-9.1-3.1-21.5,2.3c-7.5,3.3-23.8,11.3-29.2,1.3c-5.5-10.2,6.7-23.7,14.9-29.7
			c4.1-3.3,10.3-6.9,13.1-8.7c0.4-0.2,0.8-0.6,1.2-0.9c1-0.8,2.2-2,2.9-2.7c0.4-0.4,0.6-0.7,0.9-0.9c0.6-0.5,0.9-0.4,1.3,0.2
			c2.1,2.5,6.5,7.2,9.1,9.4c0.1,0.1,0.2,0.2,0.2,0.3c0.1,0.2,0.1,0.4-0.2,0.7c-0.2,0.3-0.3,0.4-0.5,0.6c-0.5,0.4-0.8,0.3-1.2,0.1
			c-7.1-3.7-18.1-0.9-25,4.6c-9.1,7.3-11.7,12.8-9.6,16.3c2.2,3.7,8.1,2.4,21.7-4.1c8.2-3.9,24.2-12.3,31-1.8
			C2039.4,2035.3,2023.3,2050.9,2014.5,2057.4z"/>
	</g>
</g>
<text transform="matrix(1 0 0 1 188.9253 1196.5366)" class="st0 st1 st2">KN</text>
<text transform="matrix(1 0 0 1 694.0923 1683.3352)" class="st0 st1 st2">CK</text>
</svg>
