<?xml version="1.0" encoding="utf-8"?>
<!-- Generator: Adobe Illustrator 23.0.1, SVG Export Plug-In . SVG Version: 6.00 Build 0)  -->
<svg version="1.1" id="Layer_1" xmlns="http://www.w3.org/2000/svg" xmlns:xlink="http://www.w3.org/1999/xlink" x="0px" y="0px"
	 viewBox="0 0 302 346.76" style="enable-background:new 0 0 302 346.76;" xml:space="preserve">
<style type="text/css">
	.st0{fill:#58D0F4;}
	.st1{fill:#FFDE55;}
	.st2{fill:#F9D026;}
	.st3{fill:#FFFFFF;}
	.st4{fill:#252535;}
	.st5{fill:#FF3B4E;}
</style>
<g>
	<path class="st0" d="M116.42,258.26c-7.95-3.02-12.87-0.01-17.69,1.92c-21.95,8.82-43.98,8.63-66.25,1.56
		c-9.18-2.91-16.27-8.76-21.75-16.37c-4.13-5.73-5.2-9.9,4.86-11.18c46.28-5.91,92.7-8.56,139.34-8.83
		c49.19-0.29,98.08,3.05,149.85,9.97c-9.25,8.62-18.7,9.41-27.67,10c-20.51,1.36-41.11,1.36-61.6,2.95
		c-23.57,1.83-46.36,7.27-67.52,18.38c-1.22,0.64-2.07,1.14-1.79,2.94c16.32,0.12,31.27-7.06,47.3-9.05
		c30.43-3.79,60.27,0.27,90.26,3.73c9.28,1.07,6.39,5.08,2.96,9.68c-35.09,46.97-80.92,71.97-140.56,69.09
		c-12.49-0.6-24.71-1.9-38.87-7.86c36.54-15.05,66.14-41.51,106.91-38.53c-1.53-6.13-5.96-4.31-9.39-4.65
		c-30.4-2.97-57.66,9.52-85.59,18c-37.06,11.25-65.06,3.2-86.88-27.77C61.44,278.6,89.71,274.08,116.42,258.26z"/>
</g>
<path class="st1" d="M175.87,127.13c-43.48-25.15-24.13-79.91,4.29-87c1.66-0.41,3.31-0.96,4.97-1.42c0.58-0.26,1.17-0.52,1.75-0.78
	c0,0-0.01-0.02-0.01-0.02c1.97,1.87,4.46,2.16,6.98,2.19c23.25,0.29,39.96,11.08,54.44,29.28
	C275.63,103.74,248.56,169.18,175.87,127.13z"/>
<g>
	<path class="st2" d="M249.25,127.62c2.64-12.06,1.19-47.2-5.05-56.55c-12.91-19.34-31.19-28.99-54.44-29.28
		c-2.52-0.03-5.01-0.32-6.98-2.19c22.3-8.51,42.68-4.12,60.91,10.2c16.96,13.32,23.99,31.72,24.21,52.95
		C267.95,107.88,251.82,129.17,249.25,127.62z"/>
	<path class="st2" d="M262.77,58.72c9.12-0.86,16.14-1.78,23.29-1.09c-0.08,0.91,0.04,1.49-0.19,1.81
		c-3.85,5.2-6.85,13.93-12.19,14.31C267.78,74.17,269.32,63.53,262.77,58.72z"/>
	<path class="st2" d="M275.09,112.81c0.61-6.26,1.19-12.3,1.87-19.31c6,3.22,11.26,5.95,16.42,8.86c2.12,1.2,4.24,3.27,0.21,4.38
		C287.45,108.45,282.2,112.8,275.09,112.81z"/>
	<path class="st2" d="M254.3,22.55c-0.09,3.09,0.07,5.55-0.27,7.93c-0.59,4.1,0.74,10.1-2.82,11.72c-4.05,1.85-7.42-3.76-11.37-5.61
		c-3.58-1.67-2.51-3.82,0.07-5.45C244.44,28.29,249.11,25.63,254.3,22.55z"/>
	<path class="st2" d="M178.35,30.8c-5,2.48-9.83,4.89-15.03,7.47c-2.34-5.57-1.13-11.27-1.38-16.8c-0.09-1.88,1.18-3.92,3.21-1.74
		C169.03,23.93,175.06,25.54,178.35,30.8z"/>
	<path class="st2" d="M217.67,27.83c-5.75-0.63-10.04-1.64-14.5-1.12c-3.94,0.46-4.18-2.05-2.6-4.73c2.62-4.44,5.53-8.7,8.62-13.5
		C212.55,14.37,213.08,21.22,217.67,27.83z"/>
</g>
<g>
	<path class="st3" d="M95.72,243.16c0,0,14.97-12.77,30.71-14.01c15.74-1.25,49.72,2.11,50,2.78c0.29,0.67,9.69,4.7,10.08,14.3
		s0.58,34.94,0.58,34.94s-36.76-13.53-54.61-8.16s-40.76,11.9-40.76,11.9s-7.23-4.42-5.41-13.63S95.72,243.16,95.72,243.16z"/>
	<path class="st4" d="M233.94,179.11c-2.11-6.46-3.19-13.26-4.24-19.84c-0.57-3.55-1.15-7.13-1.9-10.56
		c3.48-12.16,2.92-32.19-6.54-49.08c-2.69-4.79-5.95-9.01-9.69-12.64c-0.03-5.77-1.88-11.53-5.57-16.35
		c-9.07-11.81-26.06-14.04-37.89-4.97c-1.89,1.45-3.58,3.15-5.03,5.03c-0.05,0.07-0.1,0.15-0.15,0.22
		c-5.87-0.05-12.04,0.26-18.34,0.92c-4.37-4.14-9.89-6.81-15.96-7.61c-7.6-1.01-15.15,1.02-21.23,5.69
		c-2.01,1.55-3.81,3.36-5.34,5.35c-1.97,2.58-3.44,5.4-4.42,8.36c-6.86,2.92-13.27,6.35-18.92,10.3
		c-13.61,9.49-21.58,21.21-23.07,33.9c-3.38,28.63,5.76,56.95,16.31,72.31c9.31,13.55,4.64,33.15,4.6,33.34
		c-0.03,0.12-0.06,0.24-0.08,0.37l-2.28,13.53c-4.06,3.29-6.51,6.23-7.46,7.48c-0.52,0.68-0.77,1.07-0.77,1.07
		c-0.28,0.41-0.51,0.92-0.63,1.4L53.9,301.1c-1.24,2.34-1.86,4.68-1.77,6.98c-0.13,0.97,0.03,1.92,0.45,2.76
		c4.26,14.35,37.25,20.74,75.25,14.27c28.11-4.78,54.35-16.49,63.76-27.5c3.62-4.86,2.4-12.18,2.4-12.18l-2.04-48.24
		c1.21-0.97,3.96-2.82,9.69-5.16c6.62-2.71,17.12-10.02,24.65-19.88C233.41,202.83,237.89,191.23,233.94,179.11z M83.29,120.58
		c-12.99-3.77-13.33,21.87-14.03,26.33c-0.7,4.48-2.1,1.29-2.1,1.29c-1.9-6.82-0.81-14.36,0.25-18.96c0.19-1.16,0.53-2.52,1.1-4.05
		c0.05-0.16,0.09-0.27,0.09-0.27l0.03-0.03c2.05-5.26,6.88-12.31,18.11-19.1c0.71-0.36,1.42-0.63,2.13-0.87
		c0.01-0.01,0.02-0.02,0.03-0.03l0.41-0.13l-0.05,0.04c0.31-0.09,0.62-0.16,0.93-0.24l0.61-0.14c2.77-0.55,5.5-0.33,8.04,0.31
		c0.87,1.9,1.95,3.73,3.26,5.44c9.65,12.56,27.7,14.93,40.26,5.29c2.02-1.55,3.82-3.35,5.36-5.35c3.37-4.42,5.28-9.59,5.75-14.87
		c0.37-1.42,1.13-3.09,2.66-2.24l2.55,2.94l1.52,2.85l0.02-0.01c0.8,1.66,1.75,3.26,2.9,4.77c4.4,5.73,10.75,9.39,17.91,10.33
		c7.16,0.94,14.25-0.96,19.97-5.35c1.9-1.46,3.59-3.16,5.03-5.04c1.22-1.6,2.22-3.31,3.04-5.09c1.4,1.82,2.7,3.78,3.88,5.88
		c4.87,8.69,7.06,18.75,7.28,27.64c-2.72-2.86-6.31-4.92-11.17-5.76c-11.45-1.99-22.59,2.09-28.65,10.48
		c-3.15,4.43-6.8,13.07-3.06,26.79l-0.04-0.03c0,0,0.02,0.08,0.05,0.22c0,0.01,0,0.01,0,0.02c0,0.01,0.01,0.03,0.01,0.04
		c0.02,0.07,0.03,0.16,0.05,0.27c0.01,0.03,0.01,0.07,0.02,0.11c0,0,0,0.01,0,0.01c0.05,0.39,0.1,0.91,0.07,1.49
		c-0.01,0.05-0.01,0.1-0.02,0.15c0,0,0,0.01,0,0.01c-0.01,0.13-0.02,0.27-0.04,0.4c0,0,0,0,0,0c-0.01,0.07-0.02,0.14-0.03,0.21
		c0,0,0,0,0,0c-0.03,0.14-0.06,0.28-0.1,0.42c0,0.02-0.01,0.03-0.01,0.05c-0.12,0.46-0.31,0.91-0.59,1.34
		c-0.03,0.05-0.07,0.1-0.11,0.15c-0.26,0.35-0.58,0.66-0.99,0.94c-0.04,0.03-0.09,0.07-0.14,0.1l0,0c-0.23,0.14-0.48,0.27-0.75,0.38
		l0,0c-0.66,0.24-1.3,0.48-1.95,0.71c-0.33,0.12-0.66,0.24-0.98,0.36c-0.31,0.11-0.63,0.23-0.93,0.34c-0.02,0-0.03,0.01-0.04,0.02
		c-0.67,0.24-1.32,0.47-1.98,0.7c-0.01,0-0.02,0.01-0.02,0.01c-0.01,0-0.02,0.01-0.03,0.01c-0.61,0.21-1.21,0.42-1.8,0.63
		c-0.63,0.22-1.26,0.43-1.89,0.64c-0.2,0.07-0.4,0.13-0.61,0.2c-0.04,0.01-0.08,0.03-0.11,0.04c-0.65,0.22-1.3,0.43-1.93,0.63
		c-0.71,0.23-1.41,0.45-2.11,0.68c-0.03,0.01-0.05,0.01-0.07,0.02c-0.01,0-0.03,0.01-0.04,0.01c-0.6,0.19-1.21,0.38-1.81,0.57
		c-0.46,0.14-0.91,0.28-1.37,0.41h0c-0.11,0.03-0.22,0.07-0.33,0.1c-0.59,0.18-1.17,0.35-1.75,0.52c-0.52,0.16-1.04,0.3-1.56,0.45
		c0,0,0,0-0.01,0c-0.04,0.01-0.08,0.02-0.12,0.03c-0.84,0.23-1.66,0.46-2.47,0.68c-0.5,0.13-0.98,0.26-1.47,0.39
		c-0.01,0-0.02,0.01-0.02,0.01c-0.03,0.01-0.04,0.01-0.06,0.02c-0.63,0.16-1.27,0.33-1.89,0.49c-0.45,0.11-0.89,0.22-1.33,0.32
		c-0.59,0.15-1.17,0.28-1.75,0.42c-0.4,0.09-0.81,0.19-1.2,0.28c-0.88,0.2-1.74,0.38-2.58,0.56c-0.29,0.06-0.57,0.11-0.85,0.17
		c0,0,0,0-0.01,0c-0.66,0.13-1.31,0.26-1.95,0.38h-0.01c-0.18,0.04-0.37,0.07-0.55,0.1c-0.15,0.03-0.31,0.06-0.47,0.09
		c-0.57,0.1-1.14,0.2-1.7,0.29c-0.31,0.05-0.61,0.1-0.91,0.15c-0.2,0.03-0.39,0.06-0.59,0.09c-0.59,0.09-1.17,0.18-1.75,0.25
		c0,0-0.01,0-0.02,0c-0.02,0-0.03,0-0.04,0.01c-40.96,5.31-39.17-28.37-39.09-29.68c0.12-1.71,0.31-3.49,0.57-5.36
		c1.57-11.34-0.16-19.23-5.17-23.42C86.46,121.79,84.85,121.03,83.29,120.58z M131.3,268.13c-0.73,0.15-11.73,2.52-23.55,7.21
		c-15.76,6.24-16.14,1.97-16.01,0.9l4.44-25.08l0.32-1.8c0.65-2.28,2.66-6.34,8.87-9.86c1.58-0.81,3.27-1.61,5.08-2.37l0.01,0
		c15.44-6.44,39.43-10.07,72.09,3.07l1.24,36.55C172.75,270.48,154.56,265.85,131.3,268.13z M198.05,223.22
		c-7.58,3.09-11.45,5.8-13.44,7.77c-2.39-0.98-10.29-4.05-21.39-6.32l-3.88-6.68c0,0-3-5.07-3.3,1.29
		c-0.03,0.56-0.02,1.06-0.01,1.55l-0.01-0.01c0,0,0.14,2.56-1.81,2.32c-5.03-0.67-10.47-1.1-16.18-1.1c0,0-8.19,0.24-18.65,3v0
		c-22.68,6.25-22.55-11.19-20.96-20.67c1.21-4.3,5.84-11.69,23.38-12.48c0.63-0.01,1.26-0.03,1.9-0.05c0.16,0,0.31-0.01,0.47-0.02
		c4.22,0.94,11.21,2.73,13.91,4.89c3.98,3.18,10.75-6.36,10.75-6.36s0.96-2.03,7.19-4.37c2.12-0.6,4.29-1.25,6.5-1.95l0,0.01
		c2.08-0.64,8.57-2.23,15.52,0.35c5.12,1.9,9.36,2.47,11.25,2.64c0.25,0.04,0.5,0.05,0.76,0.05c0.2,0.01,0.31,0.01,0.31,0.01
		c0.67-0.04,1.29-0.21,1.86-0.49l0.01,0.03c0,0,8.05-3.83,2.98-14.77c-5.07-10.94-9.94-17.79-6.06-27.64
		c3.88-9.84,17.86-8.67,17.86-8.67l0.01-0.06c0.14,0.02,0.28,0.03,0.42,0.06c8.66,1.5,10.44,10.12,12.87,25.22
		c1.06,6.62,2.25,14.11,4.6,21.29C230.9,200.49,207.83,219.21,198.05,223.22z"/>
	<path class="st3" d="M139.22,81.69c6.07,7.92,4.58,19.26-3.33,25.34c-7.92,6.07-19.27,4.57-25.33-3.33
		c-6.08-7.92-4.59-19.26,3.34-25.33C121.8,72.29,133.14,73.78,139.22,81.69"/>
	<path class="st3" d="M197.46,77.2c-0.38-0.5-0.8-0.97-1.23-1.41c-11.18-3.4-19.95-0.73-24.66,1.52c-3.81,5.04-4.3,11.79-1.46,17.26
		c0.48,0,0.97,0.04,1.45,0.19c0.16,0.04,12.68,3.76,26.73-1.27c0.44-0.16,0.88-0.23,1.33-0.25
		C201.75,87.99,201.03,81.87,197.46,77.2z"/>
	<path class="st3" d="M65.42,294.88l-1.61,6.37c2.11-2.14,5.07-3.58,7.9-4.53l11.06-43.92c-4.71,3.31-7.46,6.54-8.43,7.8
		l-7.39,28.22v0l-1.6,6.1C65.37,294.92,65.4,294.9,65.42,294.88z"/>
	<path class="st4" d="M133.14,257.43c-2.71-2.27-5.81-4.58-8.76-6.67c2.34-2.73,4.87-5.3,7.45-7.24c1.76-1.32,2.11-3.81,0.79-5.56
		c-1.32-1.76-3.81-2.11-5.57-0.79c-3.28,2.47-6.44,5.72-9.27,9.09c-2.74-1.8-4.66-2.99-4.85-3.11c-1.87-1.15-4.32-0.58-5.47,1.29
		c-1.16,1.87-0.57,4.32,1.29,5.47c0.04,0.03,1.69,1.05,4.15,2.65c-3.97,5.53-6.59,10.15-6.79,10.51c-1.08,1.91-0.4,4.34,1.51,5.42
		c0.5,0.28,1.03,0.44,1.57,0.49c1.52,0.15,3.06-0.6,3.85-2.01c0.05-0.09,2.62-4.63,6.44-9.94c2.9,2.04,5.95,4.3,8.56,6.49
		c0.64,0.54,1.4,0.83,2.17,0.91c1.26,0.12,2.56-0.36,3.43-1.4C135.05,261.35,134.83,258.84,133.14,257.43z"/>
	<path class="st4" d="M172.51,259.68c-0.62-0.88-3.5-4.92-7.19-9.42c1.56-1.11,3.16-2.1,4.71-2.82c1.99-0.92,2.86-3.29,1.94-5.28
		c-0.93-2-3.29-2.86-5.28-1.94c-2.23,1.03-4.48,2.46-6.62,4.03c-3.04-3.23-6.16-6.08-8.82-7.45c-1.95-1.01-4.35-0.25-5.36,1.7
		c-1.01,1.95-0.25,4.35,1.7,5.36c1.67,0.87,3.93,2.91,6.35,5.47c-3.93,3.6-6.69,6.78-6.9,7.03c-1.43,1.66-1.25,4.17,0.42,5.61
		c0.75,0.65,1.67,0.96,2.59,0.96c1.12,0,2.23-0.47,3.01-1.38c0.05-0.06,2.59-2.97,6.12-6.24c2.59,3.16,5.04,6.4,6.83,8.93
		c0.77,1.1,2.01,1.69,3.26,1.69c0.79,0,1.59-0.24,2.29-0.72C173.35,263.96,173.78,261.47,172.51,259.68z"/>
	<g>
		<path class="st5" d="M225.85,187.55c-0.01-0.2-0.02-0.41-0.03-0.61c-0.02-0.34-0.06-0.68-0.1-1.03c-0.02-0.2-0.05-0.4-0.08-0.61
			c-0.06-0.37-0.13-0.73-0.2-1.1c-0.03-0.17-0.06-0.35-0.11-0.52c-0.12-0.54-0.27-1.08-0.45-1.62c-2.34-7.18-3.54-14.67-4.6-21.29
			c-0.14-0.86-0.27-1.69-0.41-2.51c-0.05-0.34-0.11-0.66-0.17-0.99c-0.08-0.47-0.16-0.93-0.24-1.39c-0.07-0.41-0.15-0.81-0.22-1.22
			c-0.06-0.34-0.12-0.68-0.19-1.01c-0.08-0.44-0.17-0.88-0.25-1.31c-0.05-0.25-0.1-0.5-0.15-0.75c-0.1-0.47-0.2-0.93-0.3-1.38
			c-0.03-0.15-0.07-0.3-0.11-0.45c-0.53-2.31-1.13-4.37-1.84-6.13c-0.01-0.02-0.02-0.04-0.02-0.06c-0.18-0.44-0.36-0.85-0.56-1.25
			c-0.02-0.04-0.04-0.08-0.06-0.12c-0.2-0.4-0.4-0.78-0.61-1.15c-0.01-0.02-0.02-0.04-0.03-0.05c-1.13-1.92-2.53-3.36-4.34-4.31h0
			c0,0-0.01,0-0.01,0l0,0c-0.49-0.26-1.01-0.49-1.57-0.67l0,0c-0.01,0-0.03-0.01-0.04-0.02h0c-0.56-0.18-1.13-0.34-1.75-0.44
			c-0.14-0.03-0.28-0.04-0.42-0.06l-0.01,0.06c0,0-13.99-1.17-17.86,8.67c-3.87,9.85,0.99,16.7,6.06,27.64
			c5.07,10.94-2.98,14.77-2.98,14.77l-0.01-0.03c-0.15,0.07-0.31,0.12-0.46,0.17c-0.01,0-0.02,0.01-0.03,0.01s-0.02,0.01-0.03,0.01
			c0,0-0.01,0-0.02,0c-0.26,0.09-0.53,0.16-0.82,0.21c0,0-0.01,0-0.01,0c-0.17,0.03-0.32,0.07-0.49,0.08c0,0-0.11,0-0.31-0.01
			c-0.26,0-0.51-0.02-0.76-0.05c-1.9-0.17-6.14-0.74-11.25-2.64c-6.95-2.58-13.45-0.99-15.52-0.35l0-0.01
			c-2.22,0.7-4.38,1.35-6.5,1.95c-6.23,2.34-7.19,4.37-7.19,4.37s-6.77,9.54-10.75,6.36c-0.26-0.21-0.57-0.41-0.9-0.61
			c-0.06-0.03-0.11-0.07-0.17-0.1c-0.34-0.2-0.7-0.39-1.09-0.57c-0.05-0.02-0.09-0.04-0.14-0.07c-0.86-0.4-1.84-0.79-2.87-1.15
			l-3.06-0.35l3.06,0.35c-1.46-0.51-3.04-0.97-4.55-1.38c0,0-0.01,0-0.01,0c-0.75-0.2-1.49-0.38-2.19-0.56c-0.01,0-0.02,0-0.03-0.01
			c-0.7-0.17-1.37-0.32-1.97-0.46c-0.16,0-0.31,0.01-0.47,0.02c-0.64,0.03-1.27,0.04-1.9,0.05c-17.54,0.79-22.17,8.18-23.38,12.48
			c-1.59,9.48-1.72,26.92,20.96,20.67v0c9.53-2.51,17.16-2.94,18.44-2.99c0.03,0,0.04,0,0.07,0c0.04,0,0.06,0,0.08,0
			c0.04,0,0.06,0,0.06,0c1.3,0,2.58,0.03,3.85,0.07c0.38,0.01,0.76,0.03,1.15,0.05c0.91,0.04,1.81,0.09,2.7,0.15
			c0.39,0.03,0.78,0.05,1.17,0.08c0.99,0.08,1.96,0.16,2.93,0.25c0.23,0.02,0.47,0.04,0.7,0.07c1.18,0.12,2.34,0.26,3.49,0.41
			c0.07,0.01,0.14,0.02,0.21,0.03c1.95,0.24,1.81-2.32,1.81-2.32l0.01,0.01c-0.01-0.49-0.02-0.99,0.01-1.55
			c0.3-6.36,3.3-1.29,3.3-1.29l3.88,6.68c0.95,0.2,1.87,0.4,2.77,0.6c0.04,0.01,0.09,0.02,0.13,0.03c0.06,0.01,0.11,0.03,0.16,0.04
			c2.63,0.6,5.05,1.23,7.21,1.86c0.11,0.03,0.22,0.06,0.32,0.09c0.03,0.01,0.06,0.02,0.09,0.03c0.34,0.1,0.66,0.19,0.99,0.29
			c0.05,0.02,0.11,0.03,0.16,0.05c0.05,0.01,0.1,0.03,0.15,0.04c0.87,0.26,1.7,0.52,2.47,0.77c0.01,0,0.02,0.01,0.03,0.01
			c0.07,0.02,0.13,0.04,0.2,0.06c0.42,0.14,0.82,0.27,1.2,0.4c0.11,0.04,0.22,0.08,0.33,0.11c0.04,0.01,0.07,0.02,0.1,0.04
			c0.65,0.22,1.24,0.43,1.78,0.63c0.04,0.02,0.1,0.03,0.14,0.05c0.06,0.02,0.11,0.04,0.17,0.06c0.54,0.2,1.02,0.38,1.45,0.55
			c0.1,0.04,0.2,0.08,0.29,0.11c0,0,0.01,0,0.01,0.01c0.5,0.2,0.92,0.36,1.23,0.49c1.76-1.75,5.01-4.07,11-6.73
			c0.77-0.34,1.58-0.69,2.44-1.04c0.43-0.17,0.88-0.39,1.35-0.61c0.09-0.04,0.18-0.09,0.27-0.13c0,0,0.01,0,0.01-0.01
			c1.01-0.5,2.11-1.12,3.27-1.84c0.03-0.02,0.05-0.03,0.08-0.05c0.01,0,0.01-0.01,0.02-0.01c0.68-0.43,1.38-0.89,2.1-1.38
			c0,0,0,0,0.01,0c1.72-1.19,3.53-2.58,5.32-4.13c0.1-0.08,0.19-0.17,0.29-0.25c0.27-0.24,0.55-0.48,0.82-0.73
			c0.13-0.12,0.27-0.24,0.4-0.37c0.25-0.23,0.5-0.47,0.75-0.7c0.15-0.14,0.3-0.29,0.45-0.43c0.24-0.23,0.48-0.46,0.71-0.7
			c0.16-0.17,0.33-0.33,0.49-0.5c0.22-0.23,0.44-0.45,0.66-0.68c0.36-0.38,0.71-0.77,1.06-1.16c0.17-0.19,0.33-0.38,0.49-0.57
			c0.21-0.24,0.42-0.48,0.63-0.73c0.16-0.19,0.32-0.39,0.48-0.59c0.2-0.25,0.4-0.5,0.6-0.75c0.15-0.2,0.3-0.39,0.45-0.59
			c0.2-0.26,0.4-0.53,0.6-0.8c0.14-0.19,0.28-0.38,0.41-0.57c0.21-0.29,0.41-0.59,0.61-0.89c0.11-0.17,0.23-0.34,0.34-0.51
			c0.25-0.39,0.5-0.78,0.73-1.17c0.05-0.09,0.11-0.17,0.16-0.26c0.29-0.48,0.56-0.97,0.83-1.47c0.07-0.12,0.13-0.25,0.19-0.37
			c0.19-0.37,0.38-0.74,0.56-1.12c0.08-0.17,0.16-0.35,0.24-0.52c0.15-0.34,0.3-0.67,0.44-1.01c0.08-0.19,0.15-0.37,0.22-0.56
			c0.13-0.33,0.25-0.67,0.37-1.01c0.06-0.18,0.13-0.37,0.19-0.55c0.12-0.36,0.22-0.72,0.32-1.08c0.04-0.16,0.09-0.32,0.13-0.48
			c0.13-0.49,0.24-0.98,0.33-1.47c0.01-0.03,0.02-0.07,0.02-0.1c0.1-0.53,0.18-1.06,0.24-1.6c0.02-0.15,0.03-0.3,0.04-0.45
			c0.04-0.38,0.07-0.76,0.08-1.15c0.01-0.19,0.01-0.38,0.01-0.57C225.87,188.24,225.87,187.89,225.85,187.55z"/>
		<path class="st5" d="M212.95,104.29c-1.18-2.1-2.47-4.06-3.88-5.88c-0.82,1.78-1.82,3.49-3.04,5.09
			c-1.44,1.88-3.14,3.58-5.03,5.04c-5.73,4.39-12.81,6.29-19.97,5.35c-7.15-0.95-13.51-4.61-17.91-10.33
			c-1.16-1.5-2.11-3.11-2.9-4.77l-0.02,0.01l-1.52-2.85l-2.55-2.94c-0.15-0.08-0.28-0.14-0.42-0.17c-0.02,0-0.03-0.01-0.05-0.01
			c-0.26-0.06-0.49-0.05-0.7,0.03c-0.02,0-0.03,0.01-0.04,0.02c-0.1,0.04-0.2,0.1-0.3,0.17c0,0.01-0.01,0.01-0.01,0.01
			c-0.09,0.07-0.18,0.16-0.26,0.25c-0.01,0-0.01,0.01-0.02,0.02c-0.08,0.1-0.16,0.2-0.23,0.32c0,0.01-0.01,0.03-0.02,0.03
			c-0.14,0.23-0.26,0.5-0.36,0.77c0,0.01-0.01,0.03-0.02,0.05c-0.1,0.26-0.17,0.52-0.24,0.78c-0.47,5.27-2.38,10.44-5.75,14.86
			c-1.53,2-3.34,3.8-5.36,5.35c-12.56,9.64-30.61,7.27-40.26-5.29c-1.31-1.71-2.38-3.54-3.26-5.44c-2.54-0.63-5.27-0.86-8.04-0.31
			l-0.61,0.14c-0.31,0.07-0.62,0.15-0.93,0.24l0.05-0.04l-0.41,0.13c-0.01,0.01-0.02,0.02-0.03,0.03c-0.71,0.24-1.42,0.51-2.13,0.87
			c-11.08,6.69-15.93,13.64-18.02,18.88c-0.04,0.08-0.08,0.16-0.11,0.24c0,0-0.13,0.37-0.31,0.98c-0.42,1.23-0.72,2.37-0.88,3.34
			c0,0,0,0,0,0c-0.27,1.16-0.53,2.51-0.75,3.99c-0.01,0.09-0.03,0.17-0.04,0.26c0,0.01,0,0.03-0.01,0.04
			c-0.07,0.48-0.13,0.96-0.19,1.46c0,0.02,0,0.04-0.01,0.06c-0.01,0.11-0.02,0.21-0.03,0.32c-0.24,2.26-0.34,4.72-0.15,7.23
			c0,0,0,0,0,0.01c0.01,0.17,0.03,0.34,0.04,0.51c0.06,0.65,0.14,1.31,0.24,1.96c0,0,0,0.01,0,0.01c0.01,0.05,0.02,0.09,0.02,0.14
			c0.16,1,0.35,1.99,0.63,2.97c0,0,1.4,3.18,2.1-1.29c0.69-4.46,1.03-30.1,14.03-26.33c1.56,0.45,3.17,1.22,4.69,2.49
			c5.01,4.2,6.74,12.09,5.17,23.42c-0.26,1.87-0.45,3.65-0.57,5.36c-0.08,1.31-1.87,34.99,39.09,29.68c0.01,0,0.03-0.01,0.04-0.01
			c0.3-0.04,0.61-0.09,0.91-0.13c0.28-0.04,0.57-0.08,0.85-0.12c0.2-0.03,0.39-0.06,0.59-0.09c0.3-0.05,0.61-0.1,0.91-0.15
			c0.56-0.09,1.12-0.19,1.7-0.29c0.34-0.06,0.68-0.12,1.02-0.19h0.01c0.64-0.12,1.3-0.25,1.96-0.38c0,0,0,0,0,0
			c0.29-0.06,0.57-0.11,0.85-0.17c0.84-0.18,1.71-0.37,2.58-0.56c0.39-0.09,0.8-0.18,1.2-0.28c0.58-0.13,1.16-0.27,1.75-0.42
			c0.44-0.1,0.88-0.21,1.33-0.32c0.62-0.16,1.25-0.32,1.89-0.49c0.51-0.14,1.02-0.27,1.55-0.41c0.81-0.22,1.63-0.45,2.47-0.68
			c0.02-0.01,0.04-0.01,0.07-0.02c0.02,0,0.04-0.01,0.06-0.02c0.51-0.15,1.03-0.3,1.56-0.45c0.58-0.17,1.16-0.34,1.75-0.52
			c0.56-0.17,1.13-0.34,1.7-0.52c0.6-0.19,1.21-0.38,1.81-0.57c0.02,0,0.03-0.01,0.04-0.01c0.02,0,0.04-0.01,0.07-0.02
			c0.7-0.23,1.4-0.45,2.11-0.68c0.63-0.2,1.28-0.42,1.93-0.63c0.03-0.01,0.06-0.02,0.09-0.03c0.21-0.07,0.42-0.14,0.63-0.21
			c0.63-0.21,1.26-0.43,1.89-0.64c0.59-0.21,1.19-0.42,1.8-0.63c0.01,0,0.02-0.01,0.03-0.01c0.01,0,0.02,0,0.02-0.01
			c0.65-0.23,1.31-0.46,1.98-0.7c0.02-0.01,0.03-0.01,0.04-0.02c0.1-0.04,0.21-0.08,0.31-0.11c0.53-0.19,1.06-0.39,1.6-0.58
			c0.65-0.24,1.29-0.47,1.95-0.71l0,0c0.28-0.11,0.52-0.24,0.75-0.38l0,0c0.01,0,0.01-0.01,0.02-0.02c0.25-0.16,0.47-0.33,0.66-0.52
			c0,0,0.01,0,0.01-0.01c0,0,0,0,0,0c0.18-0.18,0.34-0.36,0.48-0.56l0,0c0.02-0.03,0.05-0.06,0.07-0.09c0,0,0,0,0-0.01
			c0.28-0.42,0.47-0.87,0.59-1.33l0,0l0,0c0.04-0.15,0.08-0.3,0.1-0.45c0-0.01,0-0.01,0-0.02c0,0,0,0,0,0
			c0.01-0.07,0.03-0.14,0.03-0.21c0,0,0-0.01,0-0.01c0.07-0.48,0.08-0.93,0.06-1.33c0-0.01,0-0.02,0-0.03c0-0.01,0-0.03,0-0.04
			c0,0,0-0.01,0-0.01c-0.01-0.23-0.03-0.44-0.06-0.63c0,0,0-0.01,0-0.02c0,0,0,0,0-0.01c0-0.02-0.01-0.04-0.01-0.06
			c0-0.02-0.01-0.03-0.01-0.05c-0.01-0.06-0.02-0.11-0.03-0.16c-0.01-0.03-0.01-0.08-0.02-0.11c0-0.01-0.01-0.03-0.01-0.04
			c0-0.01,0-0.01,0-0.01c-0.02-0.07-0.03-0.11-0.03-0.15c0-0.01,0-0.02,0-0.02c-0.01-0.04-0.02-0.05-0.02-0.05l0.04,0.03
			c-3.74-13.73-0.09-22.36,3.06-26.79c6.05-8.4,17.2-12.47,28.65-10.48c4.86,0.84,8.45,2.9,11.17,5.76
			C220.01,123.04,217.83,112.99,212.95,104.29z"/>
		<path class="st5" d="M71.34,308.89c0,0,5.78-6.29,21.45-6.62c0,0,5.6-15.4,37.19-21.83c31.59-6.43,48.08,9.78,48.08,9.78
			s-17.76,17.59-51.22,22.88C93.38,318.4,71.34,308.89,71.34,308.89z"/>
	</g>
</g>
</svg>
